@ NAME             %05s "TWISS"
@ TYPE             %05s "TWISS"
@ SEQUENCE         %02s "AD"
@ PARTICLE         %08s "ELECTRON"
@ MASS             %le     0.0005109989461
@ CHARGE           %le                  -1
@ ENERGY           %le                   1
@ PC               %le        0.9999998694
@ GAMMA            %le         1956.951198
@ KBUNCH           %le                   1
@ BCURRENT         %le                   0
@ SIGE             %le               0.001
@ SIGT             %le                   1
@ NPART            %le                   0
@ EX               %le                   1
@ EY               %le                   1
@ ET               %le               0.001
@ BV_FLAG          %le                   1
@ LENGTH           %le            182.4328
@ ALFA             %le       0.04485197075
@ ORBIT5           %le                  -0
@ GAMMATR          %le         4.721817907
@ Q1               %le         5.449968825
@ Q2               %le          5.41939529
@ DQ1              %le        -6.117469755
@ DQ2              %le        -6.786729317
@ DXMAX            %le         3.743713664
@ DYMAX            %le                   0
@ XCOMAX           %le                   0
@ YCOMAX           %le                   0
@ BETXMAX          %le          16.8348883
@ BETYMAX          %le         20.83728377
@ XCORMS           %le                   0
@ YCORMS           %le                   0
@ DXRMS            %le         1.386573203
@ DYRMS            %le                   0
@ DELTAP           %le                   0
@ SYNCH_1          %le                   0
@ SYNCH_2          %le                   0
@ SYNCH_3          %le                   0
@ SYNCH_4          %le                   0
@ SYNCH_5          %le                   0
@ TITLE            %08s "no-title"
@ ORIGIN           %16s "5.05.02 Linux 64"
@ DATE             %08s "09/03/20"
@ TIME             %08s "15.26.09"
* NAME                                L                  S               BETX               ALFX                 DX                DPX                MUX               BETY               ALFY                MUY                 DY 
$ %s                                %le                %le                %le                %le                %le                %le                %le                %le                %le                %le                %le 
 "AD$START"                           0                  0        3.906756872     0.001225812397      0.07589966664     9.05386387e-06                  0        13.05256879    -0.001461652437                  0                  0
 "DR.STARTAD"                         0                  0        3.906756872     0.001225812397      0.07589966664     9.05386387e-06                  0        13.05256879    -0.001461652437                  0                  0
 "DR.QDS.01.H"                   0.3553             0.3553        4.232685169      -0.9408854227      0.07870449735      0.01587588711      0.01409499835        12.12847931        2.538407805     0.004440138467                  0
 "DRIFT_0"                       0.8587              1.214        6.176989246       -1.323355962      0.09233712161      0.01587588711      0.04095017476        8.221555265        2.011404751      0.01814321662                  0
 "DR.CRB.0106"                     0.67              1.884        8.150229202         -1.6217783        0.102973966      0.01587588711      0.05600130562        5.801772689        1.600211033      0.03360719172                  0
 "DRIFT_1"                       1.0555             2.9395        12.07002175       -2.091904834       0.1197309648      0.01587588711       0.0729705533        3.107462722       0.9524274962       0.0735899572                  0
 "DR.UHZ.0200"                        0             2.9395        12.07002175       -2.091904834       0.1197309648      0.01587588711       0.0729705533        3.107462722       0.9524274962       0.0735899572                  0
 "DRIFT_2"                       0.0052             2.9447         12.0917896       -2.094220948       0.1198135194      0.01587588711       0.0730390586        3.097574071        0.949236142      0.07385671054                  0
 "DR.QFN.02"                     0.7106             3.6553        11.50776048        2.834078462       0.1133947256     -0.03349770249      0.08216940641        2.811668305      -0.5082794282       0.1145223873                  0
 "DRIFT_3"                       1.5847               5.24        4.496435111        1.590308088      0.06031091646     -0.03349770249       0.1175214706        5.546517185       -1.217503925       0.1802408453                  0
 "DR.DHZ.0204"                        0               5.24        4.496435111        1.590308088      0.06031091646     -0.03349770249       0.1175214706        5.546517185       -1.217503925       0.1802408453                  0
 "DRIFT_4"                        0.585              5.825        2.904373952        1.131163979       0.0407147605     -0.03349770249       0.1433994802        7.124157852       -1.479317726       0.1950738092                  0
 "DR.DVT.0208"                        0              5.825        2.904373952        1.131163979       0.0407147605     -0.03349770249       0.1433994802        7.124157852       -1.479317726       0.1950738092                  0
 "DRIFT_5"                       0.4197             6.2447        2.093126802       0.8017575135      0.02665577477     -0.03349770249       0.1706236736        8.444731341       -1.667152346       0.2036899259                  0
 "DR.QDS.03"                     0.7106             6.9553        1.830721293       -0.397045596     0.005678999464     -0.02697887689       0.2328384728        8.336392116        1.804398223       0.2165333036                  0
 "DRIFT_6"                       0.0052             6.9605        1.834867666      -0.4003337836     0.005538709304     -0.02697887689       0.2332900277        8.317640178        1.801743545       0.2166326917                  0
 "DR.UVT.0300"                        0             6.9605        1.834867666      -0.4003337836     0.005538709304     -0.02697887689       0.2332900277        8.317640178        1.801743545       0.2166326917                  0
 "DRIFT_7"                        0.137             7.0975        1.956427583      -0.4869648802      0.00184260317     -0.02697887689       0.2448082541        7.833544302        1.731802995       0.2193340509                  0
 "DR.S.KHM.0307"                      0             7.0975        1.956427583      -0.4869648802      0.00184260317     -0.02697887689       0.2448082541        7.833544302        1.731802995       0.2193340509                  0
 "DR.KHM.0307"                      2.2             9.2975        7.159616905       -1.878121175     -0.05751092599     -0.02697887689       0.3448155005        2.684503567       0.6086700669       0.2989696807                  0
 "DRIFT_8"                      0.13645            9.43395        7.683929531       -1.964404483     -0.06119219374     -0.02697887689       0.3477435714        2.527902581       0.5390102996       0.3073099544                  0
 "DR.QFN.04.A"                  0.00605               9.44        7.707601379       -1.945910797     -0.06135418634     -0.02655350263       0.3478686903        2.521438602       0.5286459034       0.3076913476                  0
 "DR.UHZ.0400"                        0               9.44        7.707601379       -1.945910797     -0.06135418634     -0.02655350263       0.3478686903        2.521438602       0.5286459034       0.3076913476                  0
 "DR.QFN.04.B"                     0.36                9.8        8.607231404      -0.4982880929     -0.06607137913    0.0004765883559       0.3548252039        2.366922963      -0.0889670727       0.3315017727                  0
 "DR.QFN.04.H"                  0.36605           10.16605        8.377697681        1.105295356     -0.06084004851      0.02789944148       0.3616070957         2.66494731      -0.7426591349       0.3550586436                  0
 "DRIFT_9"                      0.13145            10.2975        8.091697769        1.070436191     -0.05717266693      0.02789944148       0.3641481679        2.870252356      -0.8191898313       0.3626259272                  0
 "DR.S.KVM.0407"                      0            10.2975        8.091697769        1.070436191     -0.05717266693      0.02789944148       0.3641481679        2.870252356      -0.8191898313       0.3626259272                  0
 "DR.KVM.0407"                      2.2            12.4975        4.665295922       0.4870191947     0.004206104322      0.02789944148       0.4224300527         9.29255426       -2.100038307        0.432662247                  0
 "DRIFT_10"                      0.1327            12.6302        4.540710827       0.4518285423     0.007908360207      0.02789944148       0.4270193873        9.860156624       -2.177296758       0.4348687042                  0
 "DR.QDN.05.H"                   0.3698                 13         4.52249803      -0.4005525937      0.02025853269      0.03924326091       0.4401590547        10.87024702      -0.4985799741       0.4404951719                  0
 "DR.QDN.05.A"                   0.3605            13.3605        5.133480843       -1.327990026      0.03674690343      0.05268813176       0.4521975901        10.59080396         1.25816698       0.4457902116                  0
 "DR.UVT.0502"                        0            13.3605        5.133480843       -1.327990026      0.03674690343      0.05268813176       0.4521975901        10.59080396         1.25816698       0.4457902116                  0
 "DR.QDN.05.B"                   0.0093            13.3698        5.158433421        -1.35624846       0.0372386916      0.05308127224       0.4524852248        10.56700083        1.303589567       0.4459301252                  0
 "DRIFT_11"                      0.4052             13.775        6.347912344       -1.579286889      0.05874722311      0.05308127224       0.4637644377         9.55251351         1.20008102       0.4523506817                  0
 "COL.BHN"                            0             13.775        6.347912344       -1.579286889      0.05874722311      0.05308127224       0.4637644377         9.55251351         1.20008102       0.4523506817                  0
 "DR.BHN.05.1"                  0.97565           14.75065        10.06336701       -2.110932601       0.1707302965        0.175271455        0.483191729        7.216765847        1.054290305       0.4710958175                  0
 "COL.BHN"                            0           14.75065        10.06336701       -2.110932601       0.1707302965        0.175271455        0.483191729        7.216765847        1.054290305       0.4710958175                  0
 "DR.BHN.05.2"                  0.97565            15.7263        14.50333388       -2.642578313       0.3998940981       0.3001257606        0.496026425        5.438040166       0.8483401626       0.4959839973                  0
 "COL.BHN"                            0            15.7263        14.50333388       -2.642578313       0.3998940981       0.3001257606        0.496026425        5.438040166       0.8483401626       0.4959839973                  0
 "DRIFT_12"                      0.3895            16.1158        16.64540982       -2.856974829       0.5167930819       0.3001257606       0.5000165998        4.825158779       0.7251678907       0.5080975065                  0
 "DR.UHZ.0600"                        0            16.1158        16.64540982       -2.856974829       0.5167930819       0.3001257606       0.5000165998        4.825158779       0.7251678907       0.5080975065                  0
 "DRIFT_13"                      0.0071            16.1229        16.68600661       -2.860882955       0.5189239748       0.3001257606       0.5000844038        4.814877337       0.7229226452       0.5083319457                  0
 "DR.QFW.06"                     0.7568            16.8797        16.82642111        2.690910721       0.6739044773       0.1009600908       0.5069820514        5.020783325       -1.017080649        0.533963226                  0
 "DRIFT_14"                      0.3966            17.2763        14.76902671        2.496669724       0.7139452493       0.1009600908       0.5109865381        5.891267228       -1.177785469       0.5455795416                  0
 "COL.BHN"                            0            17.2763        14.76902671        2.496669724       0.7139452493       0.1009600908       0.5109865381        5.891267228       -1.177785469       0.5455795416                  0
 "DR.BHN.06.1"                  0.97565           18.25195        10.56180156        2.023627136       0.8775032848       0.2227891396       0.5234006561        8.375524631       -1.454612005       0.5677569178                  0
 "COL.BHN"                            0           18.25195        10.56180156        2.023627136       0.8775032848       0.2227891396       0.5234006561        8.375524631       -1.454612005       0.5677569178                  0
 "DR.BHN.06.2"                  0.97565            19.2276        6.950902948        1.550584548        1.147580143       0.3480045791       0.5415169341        11.56803604       -1.648436143       0.5835581902                  0
 "COL.BHN"                            0            19.2276        6.950902948        1.550584548        1.147580143       0.3480045791       0.5415169341        11.56803604       -1.648436143       0.5835581902                  0
 "DRIFT_15"                      0.3895            19.6171        5.817300031        1.359820887        1.283127927       0.3480045791       0.5512717302        12.90091927       -1.773600397       0.5886334825                  0
 "DR.UVT.0700"                        0            19.6171        5.817300031        1.359820887        1.283127927       0.3480045791       0.5512717302        12.90091927       -1.773600397       0.5886334825                  0
 "DRIFT_16"                     0.01055           19.62765        5.788662322        1.354653861        1.286799375       0.3480045791       0.5515610799        12.93837801       -1.776990597       0.5887634463                  0
 "DR.QDW.07"                     0.7499           20.37755        5.538389556      -0.9883512745        1.757801852       0.9392589694       0.5737760895        11.77496699        3.170902069       0.5979641883                  0
 "DRIFT_17"                     0.01055            20.3881        5.559283496      -0.9921169258        1.767711034       0.9392589694       0.5740786914        11.70816545        3.160997477       0.5981071924                  0
 "DR.UHZ.0702"                        0            20.3881        5.559283496      -0.9921169258        1.767711034       0.9392589694       0.5740786914        11.70816545        3.160997477       0.5981071924                  0
 "DRIFT_18"                        1.84            22.2281        10.41870874       -1.648875055        3.495947538       0.9392589694       0.6129425793        3.254176786         1.43356158       0.6462825908                  0
 "DR.QFW.08"                     0.7494            22.9775        9.648992159        2.566432362        3.630257939      -0.5902170906       0.6242362645        2.342870061     -0.09311556833       0.6924120062                  0
 "DRIFT_19"                      0.4003            23.3778        7.720296094        2.251694206        3.393994038      -0.5902170906       0.6316204668        2.486406185      -0.2654558153       0.7189309994                  0
 "COL.BHW"                            0            23.3778        7.720296094        2.251694206        3.393994038      -0.5902170906       0.6316204668        2.486406185      -0.2654558153       0.7189309994                  0
 "DR.BHW.08.1"                  0.97565           24.35345        4.166774162        1.492284994        2.905269714      -0.4631747229       0.6590651263        3.336384075      -0.6420903639       0.7739318139                  0
 "COL.BHW"                            0           24.35345        4.166774162        1.492284994        2.905269714      -0.4631747229       0.6590651263        3.336384075      -0.6420903639       0.7739318139                  0
 "DR.BHW.08.2"                  0.97565            25.3291        1.954970775        0.732875782        2.492474682      -0.3431726022       0.7144447069         4.99222804      -0.9820862487       0.8123516177                  0
 "COL.BHW"                            0            25.3291        1.954970775        0.732875782        2.492474682      -0.3431726022       0.7144447069         4.99222804      -0.9820862487       0.8123516177                  0
 "DRIFT_20"                      0.3895            25.7186        1.503343589       0.4266291875        2.358808953      -0.3431726022       0.7509232515        5.816972781        -1.13535853       0.8238652072                  0
 "DR.UVT.0900"                        0            25.7186        1.503343589       0.4266291875        2.358808953      -0.3431726022       0.7509232515        5.816972781        -1.13535853       0.8238652072                  0
 "DRIFT_21"                     0.00345           25.72205        1.500409206       0.4239166054        2.357625008      -0.3431726022        0.751288851        5.824811438        -1.13671614       0.8239595372                  0
 "DR.QDW.09"                     0.7641           26.48615        1.628021785      -0.6039800612        2.371249227       0.3795384191       0.8361950019         6.23044096       0.6486867676       0.8434029482                  0
 "DRIFT_22"                     0.00345            26.4896        1.632199225      -0.6068722412        2.372558635       0.3795384191       0.8365318413        6.225967735        0.647900027       0.8434911092                  0
 "DR.UHZ.0902"                        0            26.4896        1.632199225      -0.6068722412        2.372558635       0.3795384191       0.8365318413        6.225967735        0.647900027       0.8434911092                  0
 "DRIFT_23"                      0.3895            26.8791        2.232133384      -0.9333951758        2.520388849       0.3795384191       0.8692389477        5.755849736        0.559078149       0.8538538907                  0
 "COL.BHW"                            0            26.8791        2.232133384      -0.9333951758        2.520388849       0.3795384191       0.8692389477        5.755849736        0.559078149       0.8538538907                  0
 "DR.BHW.09.1"                  0.97565           27.85475        4.890725131       -1.743084259        2.968787088       0.4992662446       0.9168232006        4.734505961       0.4035973648       0.8837753998                  0
 "COL.BHW"                            0           27.85475        4.890725131       -1.743084259        2.968787088       0.4992662446       0.9168232006        4.734505961       0.4035973648       0.8837753998                  0
 "DR.BHW.09.2"                  0.97565            28.8304        8.966401874       -2.552773343        3.492156437       0.6265829075       0.9402979218         4.18077066       0.2250866942       0.9189632409                  0
 "COL.BHW"                            0            28.8304        8.966401874       -2.552773343        3.492156437       0.6265829075       0.9402979218         4.18077066       0.2250866942       0.9189632409                  0
 "DRIFT_24"                      0.4003            29.2307        11.14448357       -2.888350058        3.742977575       0.6265829075       0.9466729599         4.04083598       0.1244878234       0.9344882154                  0
 "DR.QFW.10"                     0.7494            29.9801        11.90683237        1.979575674        3.617320868      -0.9531358223       0.9565010023        5.372842218       -2.083743032       0.9615736368                  0
 "DRIFT_25"                        1.84            31.8201        6.020587356        1.219470531        1.863550955      -0.9531358223       0.9913668056        16.40717247       -3.913175582       0.9929670797                  0
 "DR.UHZ.1100"                        0            31.8201        6.020587356        1.219470531        1.863550955      -0.9531358223       0.9913668056        16.40717247       -3.913175582       0.9929670797                  0
 "DRIFT_26"                     0.01055           31.83065        5.994902507        1.215112319        1.853495372      -0.9531358223       0.9916462931        16.48985113       -3.923664991       0.9930691613                  0
 "DR.QDW.11"                     0.7499           32.58055        6.018467334       -1.249602117        1.386200588       -0.323994494        1.012579468        17.32615536        2.921668248        0.999786081                  0
 "DRIFT_27"                     0.01055            32.5911         6.04488131       -1.254092277        1.382782446       -0.323994494        1.012857847        17.26456941        2.915861632       0.9998831641                  0
 "DR.UVT.1102"                        0            32.5911         6.04488131       -1.254092277        1.382782446       -0.323994494        1.012857847        17.26456941        2.915861632       0.9998831641                  0
 "DRIFT_28"                     0.38945           32.98055        7.086246244       -1.419845158         1.25660279       -0.323994494        1.022333877        15.07688318        2.701512186        1.003725368                  0
 "COL.BHN"                            0           32.98055        7.086246244       -1.419845158         1.25660279       -0.323994494        1.022333877        15.07688318        2.701512186        1.003725368                  0
 "DR.BHN.11.1"                  0.97565            33.9562        10.38204129       -1.830920505        1.010721016      -0.1989601545        1.040430899        9.977447453        2.304748453        1.016399194                  0
 "COL.BHN"                            0            33.9562        10.38204129       -1.830920505        1.010721016      -0.1989601545        1.040430899        9.977447453        2.304748453        1.016399194                  0
 "DR.BHN.11.2"                  0.97565           34.93185        14.15986314       -2.241995851       0.8693484314      -0.0769500056        1.053219318         6.08237187        1.776472228        1.036384459                  0
 "COL.BHN"                            0           34.93185        14.15986314       -2.241995851       0.8693484314      -0.0769500056        1.053219318         6.08237187        1.776472228        1.036384459                  0
 "DRIFT_29"                     0.39665            35.3285        16.00539981       -2.410813107       0.8388262117      -0.0769500056        1.057413189        4.780594897        1.505456355        1.048102164                  0
 "DR.QFW.12"                     0.7568            36.0853        15.66076043        2.828000274       0.6812853878      -0.3307618965        1.064713641        3.815659407      -0.1269461917        1.077651101                  0
 "DRIFT_30"                      0.0071            36.0924        15.62063179        2.823921107       0.6789369784      -0.3307618965        1.064785889        3.817475467      -0.1288369314        1.077947179                  0
 "DR.UHZ.1202"                        0            36.0924        15.62063179        2.823921107       0.6789369784      -0.3307618965        1.064785889        3.817475467      -0.1288369314        1.077947179                  0
 "DRIFT_31"                      0.3897            36.4821        13.50691939        2.600026545       0.5500390673      -0.3307618965        1.069056354        3.958333119      -0.2326145762        1.093929373                  0
 "COL.BHN"                            0            36.4821        13.50691939        2.600026545       0.5500390673      -0.3307618965        1.069056354        3.958333119      -0.2326145762        1.093929373                  0
 "DR.BHN.12.1"                  0.97565           37.45775        9.158017426        2.045113169       0.2922014083      -0.2056765128         1.08300067        4.547120501      -0.4287440314        1.130860644                  0
 "COL.BHN"                            0           37.45775        9.158017426        2.045113169       0.2922014083      -0.2056765128         1.08300067        4.547120501      -0.4287440314        1.130860644                  0
 "DR.BHN.12.2"                  0.97565            38.4334        5.605786039        1.490199793       0.1497120454     -0.08371740816        1.104684991        5.631549577      -0.6004086928         1.16173942                  0
 "COL.BHN"                            0            38.4334        5.605786039        1.490199793       0.1497120454     -0.08371740816        1.104684991        5.631549577      -0.6004086928         1.16173942                  0
 "DRIFT_32"                       0.405            38.8384        4.492961582        1.257514914       0.1158064951     -0.08371740816        1.117542685        6.157506385      -0.6982500924        1.172694152                  0
 "DR.QDN.13.B"                   0.0093            38.8477        4.469800073        1.232023966       0.1150312799     -0.08297089291        1.117872975        6.170268488      -0.6726493114        1.172934281                  0
 "DR.UVT.1300"                        0            38.8477        4.469800073        1.232023966       0.1150312799     -0.08297089291        1.117872975        6.170268488      -0.6726493114        1.172934281                  0
 "DR.QDN.13.A"                   0.3605            39.2082         3.89354204       0.3982781454      0.08987411405     -0.05729362033         1.13178182        6.303155092       0.3114346301        1.182047664                  0
 "DR.QDN.13.H"                   0.3698             39.578        3.879361615      -0.3582764035      0.07299248517     -0.03450676208        1.147108954        5.715045628        1.243914908        1.191756956                  0
 "DRIFT_33"                      0.4082            39.9862        4.220324137      -0.4770065984      0.05890682488     -0.03450676208        1.163192416        4.773783004        1.061970992        1.204207691                  0
 "DR.DVT.1304"                        0            39.9862        4.220324137      -0.4770065984      0.05890682488     -0.03450676208        1.163192416        4.773783004        1.061970992        1.204207691                  0
 "DRIFT_34"                       0.468            40.4542        4.730508247      -0.6131303888      0.04275766023     -0.03450676208        1.179893185        3.877402075       0.8533728729        1.221554694                  0
 "DR.SHV.1305"                      0.4            40.8542        5.267550606      -0.7294755088       0.0289549554     -0.03450676208        1.192660152        3.266019373       0.6750838818        1.239482169                  0
 "DRIFT_35"                     1.18795           42.04215        7.411184381       -1.075005972     -0.01203735262     -0.03450676208        1.223105581        2.291102372       0.1455878643        1.310980165                  0
 "DR.QFN.14.H"                  0.36605            42.4082        7.686122826       0.3370314583     -0.02136610408     -0.01617451724        1.230736598        2.406437492      -0.4665810617        1.336190301                  0
 "DR.QFN.14.B"                     0.36            42.7682        6.957330003        1.638739682     -0.02375350789     0.002979787873        1.238485521         2.99337437       -1.199881968        1.357849164                  0
 "DR.UHZ.1402"                        0            42.7682        6.957330003        1.638739682     -0.02375350789     0.002979787873        1.238485521         2.99337437       -1.199881968        1.357849164                  0
 "DR.QFN.14.A"                  0.00605           42.77425        6.937411911        1.655623932     -0.02373454429     0.003296459163        1.238624118        3.007969627       -1.213492646        1.358170057                  0
 "DRIFT_36"                     2.47345            45.2477        2.046393518       0.3217834921     -0.01558091737     0.003296459163        1.352598079        14.03998252        -3.24667954        1.420313479                  0
 "DR.UVT.1500"                        0            45.2477        2.046393518       0.3217834921     -0.01558091737     0.003296459163        1.352598079        14.03998252        -3.24667954        1.420313479                  0
 "DRIFT_37"                      0.0052            45.2529        2.043061551       0.3189793237     -0.01556377579     0.003296459163        1.353002831        14.07377021       -3.250953963        1.420372355                  0
 "DR.QDS.15"                     0.7106            45.9635        2.456311385      -0.9563406878     -0.01544537819    -0.002955115853        1.407025298        14.47569493        2.741789251        1.427916803                  0
 "DRIFT_38"                       0.767            46.7305        4.381883598        -1.55418371     -0.01771195204    -0.002955115853        1.444581472        10.61593579        2.290491252        1.437770385                  0
 "DR.CCC.1501"                    1.032            47.7625        8.419858496       -2.358582665      -0.0207616316    -0.002955115853         1.47175393        6.515015297        1.683268911        1.457571238                  0
 "DRIFT_39"                     0.67965           48.44215         11.9859296       -2.888340174     -0.02277007609    -0.002955115853        1.482529718         4.49874113        1.283367104        1.477604407                  0
 "DR.QFN.16.A"                  0.00605            48.4482        12.02071897        -2.85824676     -0.02278702625    -0.002641234821        1.482609936        4.483303927        1.266870438        1.477818811                  0
 "DR.UHZ.1602"                        0            48.4482        12.02071897        -2.85824676     -0.02278702625    -0.002641234821        1.482609936        4.483303927        1.266870438        1.477818811                  0
 "DR.QFN.16.B"                     0.36            48.8082        13.27631569      -0.5534639929     -0.02030950253        0.016320222        1.487094272        3.919728247       0.3353522706        1.491660296                  0
 "DR.QFN.16.H"                  0.36605           49.17425        12.75572217        1.934024749     -0.01096055001      0.03445090553        1.491518914        3.985192462      -0.5159378892        1.506596911                  0
 "DRIFT_40"                     1.98875             51.163         6.53299565        1.194938929      0.05755368837      0.03445090553        1.526472232         7.29397466       -1.147811801        1.566724545                  0
 "DR.DVT.1608"                        0             51.163         6.53299565        1.194938929      0.05755368837      0.03445090553        1.526472232         7.29397466       -1.147811801        1.566724545                  0
 "DRIFT_41"                      0.4754            51.6384         5.48083877        1.018264435      0.07393164886      0.03445090553        1.539130012        8.457121419       -1.298857865        1.576363977                  0
 "DR.QDN.17.H"                   0.3698            52.0082        5.101385694      0.03051864662       0.0908282244      0.05739485717        1.550387374        8.896122025        0.134967462        1.583080187                  0
 "DR.QDN.17.A"                   0.3605            52.3687        5.416384253      -0.9216868163       0.1160509845      0.08323537859         1.56142063        8.294004548        1.501718754        1.589694973                  0
 "DR.UVT.1702"                        0            52.3687        5.416384253      -0.9216868163       0.1160509845      0.08323537859         1.56142063        8.294004548        1.501718754        1.589694973                  0
 "DR.QDN.17.B"                   0.0093             52.378        5.433773646      -0.9493554525       0.1168284454      0.08398666538        1.561693465         8.26577605        1.535373666        1.589873735                  0
 "DRIFT_42"                      0.4052            52.7832        6.260580301       -1.091134811       0.1508598423      0.08398666538        1.572759231        7.088198314        1.370790541        1.598302868                  0
 "COL.BHN"                            0            52.7832        6.260580301       -1.091134811       0.1508598423      0.08398666538        1.572759231        7.088198314        1.370790541        1.598302868                  0
 "DR.BHN.17.1"                  0.97565           53.75885        8.827412342       -1.429087283       0.2936199683       0.2059437391        1.593654342        4.637380319        1.037554789        1.625519138                  0
 "COL.BHN"                            0           53.75885        8.827412342       -1.429087283       0.2936199683       0.2059437391        1.593654342        4.637380319        1.037554789        1.625519138                  0
 "DR.BHN.17.2"                  0.97565            54.7345        11.78174625       -1.767039754       0.5517069911       0.3310311538        1.608865426        3.039036996       0.6451145644        1.667362305                  0
 "COL.BHN"                            0            54.7345        11.78174625       -1.767039754       0.5517069911       0.3310311538        1.608865426        3.039036996       0.6451145644        1.667362305                  0
 "DRIFT_43"                      0.3895             55.124        13.21135359       -1.903325688       0.6806436255       0.3310311538        1.613835006        2.607188806       0.4636099276        1.689456038                  0
 "DR.UHZ.1800"                        0             55.124        13.21135359       -1.903325688       0.6806436255       0.3310311538        1.613835006        2.607188806       0.4636099276        1.689456038                  0
 "DRIFT_44"                      0.0071            55.1311        13.23839845       -1.905809976       0.6829939467       0.3310311538        1.613920451        2.600629036       0.4603013707        1.689890002                  0
 "DR.QFW.18"                     0.7568            55.8879        12.83964998        2.388496392       0.8405231409      0.07665065104        1.622787263         2.77130447       -0.704128883        1.737329319                  0
 "DRIFT_45"                      0.3966            56.2845         11.0272329        2.181390334       0.8709227891      0.07665065104        1.628092972        3.414716819      -0.9181917147        1.757905457                  0
 "DR.BHN.18"                     1.9513            58.2358        4.548210191        1.172643595        1.257598882       0.3236951394        1.672062033        8.758864546       -1.742432014        1.815971288                  0
 "DRIFT_46"                      0.3895            58.6253        3.713944511       0.9692451845        1.383678138       0.3236951394        1.687167768         10.1861269       -1.921912927        1.822536101                  0
 "DR.UVT.1900"                        0            58.6253        3.713944511       0.9692451845        1.383678138       0.3236951394        1.687167768         10.1861269       -1.921912927        1.822536101                  0
 "DRIFT_47"                     0.01055           58.63585         3.69355156       0.9637359336        1.387093122       0.3236951394        1.687621118        10.22673055       -1.926774348        1.822700613                  0
 "DR.QDW.19"                     0.7499           59.38575        3.483472207      -0.6562609663        1.854288627        0.953163844        1.722861658        10.04873437        2.140035974        1.833906223                  0
 "DRIFT_48"                     0.01055            59.3963        3.497365026       -0.660593901        1.864344506        0.953163844        1.723342715        10.00364141        2.134177882        1.834073693                  0
 "DR.UHZ.1902"                        0            59.3963        3.497365026       -0.660593901        1.864344506        0.953163844        1.723342715        10.00364141        2.134177882        1.834073693                  0
 "DRIFT_49"                        1.84            61.2363        7.318832461       -1.416290574        3.618165979        0.953163844        1.782583637        4.029786637        1.112482321        1.880868018                  0
 "DR.QFW.20"                     0.7494            61.9857        7.169826384        1.593916493        3.743713664      -0.6268942537        1.798227478        3.737243807      -0.6821794842        1.913459011                  0
 "DRIFT_50"                      0.4003             62.386        5.972865844        1.396242238        3.492767894      -0.6268942537        1.807969099        4.346226651      -0.8391366377        1.929293005                  0
 "DR.BHW.20"                     1.9513            64.3373        2.421268611       0.4423340645        2.520398875      -0.3798497654        1.892769144        8.776088112       -1.366302868        1.980454479                  0
 "DRIFT_51"                      0.3895            64.7268        2.151607214        0.249993015        2.372447391      -0.3798497654          1.9200624        9.889995484       -1.493536342        1.987110362                  0
 "DR.UHZ.2100"                        0            64.7268        2.151607214        0.249993015        2.372447391      -0.3798497654          1.9200624        9.889995484       -1.493536342        1.987110362                  0
 "DRIFT_52"                     0.00345           64.73025         2.14988814       0.2482893523         2.37113691      -0.3798497654        1.920317699        9.900304773       -1.494663314        1.987165852                  0
 "DR.QDW.21"                     0.7641           65.49435        2.573217046      -0.8456134312         2.35725159       0.3427870214        1.975178672        9.838099803        1.569504643        1.999015717                  0
 "DRIFT_53"                     0.00345            65.4978        2.579059711      -0.8479128735        2.358434206       0.3427870214        1.975391814        9.827274411        1.568290126         1.99907156                  0
 "DR.UVT.2102"                        0            65.4978        2.579059711      -0.8479128735        2.358434206       0.3427870214        1.975391814        9.827274411        1.568290126         1.99907156                  0
 "DRIFT_54"                      0.3895            65.8873        3.340699483       -1.107516578        2.491949751       0.3427870214        1.996573525        8.658983557        1.431172915        2.005793687                  0
 "DR.BHW.21"                     1.9513            67.8386        10.10656962       -2.395011351        3.392724276       0.5898315098        2.050510528        4.086388829       0.8453274099        2.058986956                  0
 "DRIFT_55"                      0.4003            68.2389        12.13081653        -2.66181331         3.62883383       0.5898315098        2.056265636        3.476853689       0.6773684187        2.075921068                  0
 "DR.QFW.22"                     0.7494            68.9883        12.25538149        2.513322959        3.494466608      -0.9390210504        2.065550103        3.704880503       -1.012774298        2.111203426                  0
 "DRIFT_56"                        1.84            70.8283        5.027647237        1.414793481        1.766667875      -0.9390210504        2.103207647        9.283029189       -2.018828249        2.161996375                  0
 "DR.UHZ.2300"                        0            70.8283        5.027647237        1.414793481        1.766667875      -0.9390210504        2.103207647        9.283029189       -2.018828249        2.161996375                  0
 "DRIFT_57"                     0.01055           70.83885        4.997861545        1.408494848        1.756761203      -0.9390210504        2.103542611        9.325687322       -2.024596656        2.162176838                  0
 "DR.QDW.23"                     0.7499           71.58875        4.455883186      -0.6152480312         1.28578695      -0.3481653621        2.130235474        9.553846691        1.751233281        2.174212921                  0
 "DRIFT_58"                     0.01055            71.5993        4.468899353      -0.6185119168        1.282113805      -0.3481653621        2.130611749        9.516943047        1.746742427        2.174389011                  0
 "DR.UVT.2302"                        0            71.5993        4.468899353      -0.6185119168        1.282113805      -0.3481653621        2.130611749        9.516943047        1.746742427        2.174389011                  0
 "DRIFT_59"                      0.3895            71.9888        4.997655198       -0.739012717        1.146503397      -0.3481653621        2.143743937        8.220809708        1.580942654        2.181399721                  0
 "DR.BHN.23"                     1.9513            73.9401        9.007199767       -1.336631886       0.7125579169      -0.1011208738        2.190224937        3.385433227       0.8263855221        2.241700144                  0
 "DRIFT_60"                      0.3966            74.3367        10.11607795       -1.459329235       0.6724533784      -0.1011208738        2.196839435        2.808134524       0.6292340016        2.262228855                  0
 "DR.QFW.24"                     0.7568            75.0935        9.837351694        1.796728334       0.5175320465      -0.2998118455        2.208431906        2.753859334      -0.5516962781        2.307978463                  0
 "DRIFT_61"                      0.0071            75.1006        9.811859818        1.793676654       0.5154033824      -0.2998118455        2.208546923        2.761717298      -0.5550592016        2.308388212                  0
 "DR.UHZ.2402"                        0            75.1006        9.811859818        1.793676654       0.5154033824      -0.2998118455        2.208546923        2.761717298      -0.5550592016        2.308388212                  0
 "DRIFT_62"                      0.3895            75.4901        8.479792913        1.626264052       0.3986266685      -0.2998118455        2.215345083        3.265966158      -0.7395463447        2.329087585                  0
 "DR.BHN.24"                     1.9513            77.4414        3.800703902       0.7959875753      0.05808618667     -0.05276735712        2.270603489        7.689533909        -1.46275979        2.392742094                  0
 "DRIFT_63"                      0.4052            77.8466        3.226205479        0.621826892      0.03670485357     -0.05276735712        2.289061527        8.941992641       -1.628204505        2.400522377                  0
 "DR.QDN.25.B"                   0.0093            77.8559        3.214805042       0.6033387522      0.03621589833       -0.052376724        2.289521131        8.971954659       -1.591509725        2.400687626                  0
 "DR.UVT.2500"                        0            77.8559        3.214805042       0.6033387522      0.03621589833       -0.052376724        2.289521131        8.971954659       -1.591509725        2.400687626                  0
 "DR.QDN.25.A"                   0.3605            78.2164        3.015001085     -0.03806973272      0.01982492371     -0.03901163374        2.308177564        9.596544007      -0.1062599195         2.40681084                  0
 "DR.QDN.25.H"                   0.3698            78.5862        3.285414174       -0.707818106      0.00754918886     -0.02773244684        2.327119702        9.091179163        1.441862428        2.413047479                  0
 "DRIFT_64"                      0.2187            78.8049        3.616865754      -0.8077355282     0.001484102735     -0.02773244684        2.337223844        8.476707321        1.367793913        2.417012908                  0
 "DR.S.CBR.2506"                      0            78.8049        3.616865754      -0.8077355282     0.001484102735     -0.02773244684        2.337223844        8.476707321        1.367793913        2.417012908                  0
 "DR.CBR.2506"                    2.028            80.8329        8.772047803       -1.734267455     -0.05475729946     -0.02773244684        2.395842395        4.321837833       0.6809583007        2.471390883                  0
 "DRIFT_65"                     0.21745           81.05035        9.547883579        -1.83361379     -0.06078772003     -0.02773244684         2.39962435         4.04170321       0.6073131312        2.479675248                  0
 "DR.QFN.26.A"                  0.00605            81.0564        9.569937266       -1.808665599     -0.06095427488     -0.02730823653        2.399725082        4.034430081       0.5936225068        2.479913702                  0
 "DR.UHZ.2600"                        0            81.0564        9.569937266       -1.808665599     -0.06095427488     -0.02730823653        2.399725082        4.034430081       0.5936225068        2.479913702                  0
 "DR.QFN.26.B"                     0.36            81.4164        10.22819365      0.01904522306     -0.06595371703   -0.0003277173403        2.405451518        3.914000461       -0.250300499        2.494517648                  0
 "DR.QFN.26.H"                  0.36605           81.78245        9.519102072        1.866221827     -0.06101748273      0.02710085312        2.411287492        4.426618517        -1.18023838        2.508698273                  0
 "DRIFT_66"                     0.27745            82.0599        8.519786688        1.735563663     -0.05349835103      0.02710085312        2.416191614        5.123146201        -1.33022363        2.517976104                  0
 "DR.S.CBR.2606"                      0            82.0599        8.519786688        1.735563663     -0.05349835103      0.02710085312        2.416191614        5.123146201        -1.33022363        2.517976104                  0
 "DR.CBR.2606"                    2.028            84.0879        3.417153605       0.7805276007     0.001462179086      0.02710085312        2.477517227        12.74184171        -2.42652958        2.558356739                  0
 "DRIFT_67"                       0.086            84.1739        3.286385819       0.7400280438     0.003792852454      0.02710085312        2.481602064        13.16320296       -2.473019872        2.559413617                  0
 "DR.S.SCOMP.2607"                    0            84.1739        3.286385819       0.7400280438     0.003792852454      0.02710085312        2.481602064        13.16320296       -2.473019872        2.559413617                  0
 "DR.SCOMP.2607"                  0.343            84.5169        2.834130446       0.5785007412      0.01308844507      0.02710085312        2.499527248        14.92329386       -2.658440454        2.563308949                  0
 "DRIFT_68"                      0.4295            84.9464        2.424069977       0.3762384193      0.02472826149      0.02710085312        2.525724984        17.30661602       -2.890621621         2.56756294                  0
 "DR.DVT.2608"                        0            84.9464        2.424069977       0.3762384193      0.02472826149      0.02710085312        2.525724984        17.30661602       -2.890621621         2.56756294                  0
 "DRIFT_69"                      0.4706             85.417        2.174247498       0.1546210765      0.03748192296      0.02710085312        2.558582478        20.14698935       -3.145020822        2.571574441                  0
 "DR.QDN.27"                     0.7196            86.1366        2.616887395      -0.8077778218      0.06117535347      0.03977830698        2.608949791        20.83728377        2.246569254        2.576991809                  0
 "DRIFT_70"                     0.23314           86.36974        3.027861519      -0.9550004415      0.07044926796      0.03977830698         2.62214676        19.80552731        2.178910978        2.578818363                  0
 "DR.QDN.28"                     0.7196           87.08934        5.534176151       -2.743302213       0.1066984338       0.0625417756         2.65116943        13.69612249        5.772774839        2.585558487                  0
 "DRIFT_71"                      0.0212           87.11054        5.651184552       -2.775961996       0.1080243195       0.0625417756        2.651772768        13.45248321        5.719643852        2.585807062                  0
 "DR.UVT.2802"                        0           87.11054        5.651184552       -2.775961996       0.1080243195       0.0625417756        2.651772768        13.45248321        5.719643852        2.585807062                  0
 "DRIFT_72"                      0.2956           87.40614        7.426946062       -3.231350283       0.1265116683       0.0625417756         2.65903718        10.29001805        4.978817452         2.58980615                  0
 "DR.UHZ.2902"                        0           87.40614        7.426946062       -3.231350283       0.1265116683       0.0625417756         2.65903718        10.29001805        4.978817452         2.58980615                  0
 "DRIFT_73"                      0.0252           87.43134        7.590784431       -3.270172288       0.1280877211       0.0625417756        2.659571342        10.04067717        4.915661751        2.590200726                  0
 "DR.QFN.29A"                     0.709           88.14034        9.907965067       0.3464798121       0.1508499027     1.84336032e-06        2.671934126        6.378658043       0.7718630203        2.605061446                  0
 "DRIFT_74"                     0.44606            88.5864        9.621356054       0.2960548536       0.1508507249     1.84336032e-06        2.679207807        5.739840549        0.660270537        2.616804822                  0
 "DR.DHV.2904"                        0            88.5864        9.621356054       0.2960548536       0.1508507249     1.84336032e-06        2.679207807        5.739840549        0.660270537        2.616804822                  0
 "DRIFT_75"                        0.68            89.2664        9.270993571       0.2191840924       0.1508519784     1.84336032e-06        2.690676758         4.95755294       0.4901524169        2.637148465                  0
 "DR.DHZ.2908"                        0            89.2664        9.270993571       0.2191840924       0.1508519784     1.84336032e-06        2.690676758         4.95755294       0.4901524169        2.637148465                  0
 "DRIFT_76"                       0.535            89.8014        9.068822965       0.1587048905       0.1508529646     1.84336032e-06        2.699968176        4.504695823       0.3563094842        2.655205216                  0
 "DR.S.EC.2910"                       0            89.8014        9.068822965       0.1587048905       0.1508529646     1.84336032e-06        2.699968176        4.504695823       0.3563094842        2.655205216                  0
 "DR.EC.2910"                      2.83            92.6314        9.075921284      -0.1612131305       0.1508581813     1.84336032e-06        2.750456917        4.491600337      -0.3516821038        2.763503344                  0
 "DRIFT_77"                       0.535            93.1664        9.280775706      -0.2216923323       0.1508591675     1.84336032e-06        2.759739796        4.939506157      -0.4855250366        2.781619659                  0
 "DR.DHZ.2913"                        0            93.1664        9.280775706      -0.2216923323       0.1508591675     1.84336032e-06        2.759739796        4.939506157      -0.4855250366        2.781619659                  0
 "DRIFT_78"                        0.68            93.8464        9.634549396      -0.2985630935        0.150860421     1.84336032e-06        2.771194826        5.715500528      -0.6556431567        2.802044226                  0
 "DR.DHV.2917"                        0            93.8464        9.634549396      -0.2985630935        0.150860421     1.84336032e-06        2.771194826        5.715500528      -0.6556431567        2.802044226                  0
 "DRIFT_79"                     0.44606           94.29246         9.92339606       -0.348988052       0.1508612433     1.84336032e-06        2.778457863        6.350189844        -0.76723564        2.813839024                  0
 "DR.QFN.29B"                     0.709           95.00146        7.604776684        3.274495851       0.1280998316     -0.06254334679        2.790799619        9.994441793       -4.892694715        2.828767627                  0
 "DRIFT_80"                      0.0252           95.02666        7.440720971         3.23565151       0.1265237392     -0.06254334679        2.791332796        10.24261818       -4.955574589        2.829164029                  0
 "DR.UHZ.2920"                        0           95.02666        7.440720971         3.23565151       0.1265237392     -0.06254334679        2.791332796        10.24261818       -4.955574589        2.829164029                  0
 "DRIFT_81"                      0.2956           95.32226        5.662494024         2.78000122       0.1080359259     -0.06254334679        2.798583219        13.39038574       -5.693165481        2.833181647                  0
 "DR.UVT.3000"                        0           95.32226        5.662494024         2.78000122       0.1080359259     -0.06254334679        2.798583219        13.39038574       -5.693165481        2.833181647                  0
 "DRIFT_82"                      0.0212           95.34346        5.545314758        2.747322647        0.106710007     -0.06254334679        2.799185349        13.63289742       -5.746064422        2.833431374                  0
 "DR.QDN.30"                     0.7196           96.06306        3.035176511       0.9566221113      0.07046077873     -0.03977691189        2.828143179        19.71432468       -2.169207246        2.840202737                  0
 "DRIFT_83"                     0.23314            96.2962        2.623419028       0.8095161878      0.06118718949     -0.03977691189        2.841307742        20.74151313       -2.236679553        2.842037734                  0
 "DR.QDN.31"                     0.7196            97.0158        2.178981737      -0.1537072188      0.03749592366       -0.027096138         2.89155357        20.05520362         3.12994456        2.847480015                  0
 "DRIFT_84"                      0.4706            97.4864        2.427688859      -0.3747822029      0.02474448112       -0.027096138         2.92435001        17.22852331        2.876600944        2.851509791                  0
 "DR.DVT.3105"                        0            97.4864        2.427688859      -0.3747822029      0.02474448112       -0.027096138         2.92435001        17.22852331        2.876600944        2.851509791                  0
 "DRIFT_85"                      0.4295            97.9159        2.836285839      -0.5765495333      0.01310668984       -0.027096138        2.950517996        14.85683113        2.645383172        2.855782943                  0
 "DR.S.SCOMP.3106"                    0            97.9159        2.836285839      -0.5765495333      0.01310668984       -0.027096138        2.950517996        14.85683113        2.645383172        2.855782943                  0
 "DR.SCOMP.3106"                  0.343            98.2589        3.287067096       -0.737681534     0.003812714509       -0.027096138        2.968434473        13.10543364         2.46073196        2.859695577                  0
 "DRIFT_86"                      0.0575            98.3164        3.373453658      -0.7646934583     0.002254686574       -0.027096138        2.971182797        12.82422936         2.42977731        2.860401485                  0
 "DR.S.UHM.3107"                      0            98.3164        3.373453658      -0.7646934583     0.002254686574       -0.027096138        2.971182797        12.82422936         2.42977731        2.860401485                  0
 "DR.UHM.3107"                      2.2           100.5164        9.011804243       -1.798193172     -0.05735681704       -0.027096138        3.036505168        4.738783151        1.245425511        2.905935364                  0
 "DRIFT_87"                     0.13395          100.65035        9.501969137       -1.861119211     -0.06098634472       -0.027096138        3.038809078        4.414792909        1.173314637        2.910596978                  0
 "DR.QFN.32.H"                  0.36605           101.0164        10.20415054     -0.01784289052     -0.06590840315     0.000321973625        3.044657194        3.908210334       0.2454728288        2.924807177                  0
 "DR.QFN.32.B"                     0.36           101.3764         9.54454567        1.805046028     -0.06090533677       0.0272950106        3.050397999        4.032729248      -0.5979694396        2.939425058                  0
 "DR.UHZ.3200"                        0           101.3764         9.54454567        1.805046028     -0.06090533677       0.0272950106        3.050397999        4.032729248      -0.5979694396        2.939425058                  0
 "DR.QFN.32.A"                  0.00605          101.38245        9.522571718        1.829921983     -0.06073897566      0.02771902832        3.050498999        4.040039985      -0.6116639162        2.939663611                  0
 "DRIFT_88"                     0.13145           101.5139        9.049375971        1.769893517     -0.05709530939      0.02771902832        3.052752765        4.206723543      -0.6563738078        2.944739236                  0
 "DR.S.UVM.3207"                      0           101.5139        9.049375971        1.769893517     -0.05709530939      0.02771902832        3.052752765        4.206723543      -0.6563738078        2.944739236                  0
 "DR.UVM.3207"                      2.2           103.7139        3.472097631       0.7652330007     0.003886552928      0.02771902832        3.116944135        8.740990245       -1.404656511        3.003829271                  0
 "DRIFT_89"                      0.1327           103.8466         3.27704632        0.704633705     0.007564867987      0.02771902832        3.123206896        9.119775505       -1.449791563        3.006194835                  0
 "DR.QDN.33.H"                   0.3698           104.2164        3.009031464      0.03601139233      0.01983670456      0.03899785887        3.142192212        9.627686445       0.1033498352        3.012411599                  0
 "DR.QDN.33.A"                   0.3605           104.5769        3.210095177      -0.6048444102      0.03622301836      0.05236451236        3.160880986        9.003229177        1.594060787        3.018514264                  0
 "DR.UVT.3302"                        0           104.5769        3.210095177      -0.6048444102      0.03622301836      0.05236451236        3.160880986        9.003229177        1.594060787        3.018514264                  0
 "DR.QDN.33.B"                   0.0093           104.5862        3.221510415      -0.6233224839       0.0367117864      0.05275528424        3.161341261        8.973254914        1.630900912        3.018678939                  0
 "DRIFT_90"                      0.4052           104.9914        3.797418624      -0.7979712219      0.05808822757      0.05275528424         3.17982083        7.718538252        1.465635767        3.026431028                  0
 "DR.BHN.33"                     1.9513           106.9427        8.488665817       -1.630574403       0.3986053881       0.2997997726        3.235074023         3.28074813       0.7437510805        3.089807649                  0
 "DRIFT_91"                      0.3895           107.3322        9.824273217       -1.798456149       0.5153773996       0.2997997726        3.241864331        2.773188422       0.5593547159        3.110417074                  0
 "DR.UHZ.3400"                        0           107.3322        9.824273217       -1.798456149       0.5153773996       0.2997997726        3.241864331        2.773188422       0.5593547159        3.110417074                  0
 "DRIFT_92"                      0.0071           107.3393        9.849833022       -1.801516381       0.5175059779       0.2997997726        3.241979203        2.765269451       0.5559934471        3.110825131                  0
 "DR.QFW.34"                     0.7568           108.0961        10.13246089         1.45939437       0.6724217052        0.101118442        3.253554927        2.814832723      -0.6267997083        3.156421684                  0
 "DRIFT_93"                      0.3966           108.4927        9.023455312        1.336887966       0.7125252793        0.101118442        3.260158113        3.389843627      -0.8230512867        3.176912402                  0
 "DR.BHN.34"                     1.9513            110.444        5.011124845       0.7401988296        1.146466062       0.3481629303        3.306531712        8.203691171       -1.573558548        3.237237624                  0
 "DRIFT_94"                      0.3895           110.8335        4.481371977       0.6198855564        1.282075523       0.3481629303        3.319627894        9.493776289       -1.738598366        3.244264212                  0
 "DR.UVT.3500"                        0           110.8335        4.481371977       0.6198855564        1.282075523       0.3481629303        3.319627894        9.493776289       -1.738598366        3.244264212                  0
 "DRIFT_95"                     0.01055          110.84405        4.468326772       0.6166267501        1.285748642       0.3481629303        3.320003121        9.530507876       -1.743068636        3.244440733                  0
 "DR.QDW.35"                     0.7499          111.59395        5.011600344       -1.411769258        1.756715119       0.9390022299        3.346621532         9.29770586         2.02199448        3.256509727                  0
 "DRIFT_96"                     0.01055           111.6045        5.041455149       -1.418070065        1.766621593       0.9390022299        3.346955579        9.255102691        2.016220661        3.256690734                  0
 "DR.UHZ.3502"                        0           111.6045        5.041455149       -1.418070065        1.766621593       0.9390022299        3.346955579        9.255102691        2.016220661        3.256690734                  0
 "DRIFT_97"                      0.3002           111.9047        5.946687066       -1.597359371        2.048510062       0.9390022299        3.355685959        8.093884829        1.851926779        3.262212129                  0
 "DR.S.KFE.3505"                      0           111.9047        5.946687066       -1.597359371        2.048510062       0.9390022299        3.355685959        8.093884829        1.851926779        3.262212129                  0
 "DR.KFE.3505"                   1.3285           113.2332        11.24493452       -2.390783234        3.295974524       0.9390022299        3.381657328        4.139219063         1.12486341         3.29907023                  0
 "DRIFT_98"                      0.2113           113.4445        12.28194458       -2.516978538        3.494385696       0.9390022299        3.384519073        3.688286637        1.009222846        3.307681358                  0
 "DR.QFW.36"                     0.7494           114.1939        12.15440075        2.669019918        3.628751883      -0.5898153764        3.393784471        3.461321707      -0.6753788977        3.343124914                  0
 "DRIFT_99"                      0.4003           114.5942        10.12468347        2.401470403        3.392648788      -0.5898153764        3.399528842        4.069441142      -0.8437803214        3.360132561                  0
 "DR.BHW.36"                     1.9513           116.5455        3.340827852        1.110368179        2.491905427       -0.342770888        3.453414565        8.641332054       -1.432369603         3.41349736                  0
 "DRIFT_100"                     0.3895            116.935        2.577250001        0.850037087        2.358396166       -0.342770888        3.474603345        9.810724384        -1.56992136         3.42023203                  0
 "DR.UVT.3700"                        0            116.935        2.577250001        0.850037087        2.358396166       -0.342770888        3.474603345        9.810724384        -1.56992136         3.42023203                  0
 "DRIFT_101"                    0.00345          116.93845          2.5713927       0.8477312018        2.357213607       -0.342770888        3.474816639        9.821561045       -1.571139726        3.420287967                  0
 "DR.QDW.37"                     0.7641          117.70255        2.144998076      -0.2460813439        2.371107135       0.3798555433        3.529763007        9.890123841        1.488649038        3.432153937                  0
 "DRIFT_102"                    0.00345            117.706        2.146701922      -0.2477871348        2.372417636       0.3798555433         3.53001889        9.879856033        1.487527165        3.432209484                  0
 "DR.UHZ.3702"                        0            117.706        2.146701922      -0.2477871348        2.372417636       0.3798555433         3.53001889        9.879856033        1.487527165        3.432209484                  0
 "DRIFT_103"                     0.3895           118.0955        2.414738527      -0.4403684604        2.520371371       0.3798555433         3.55738091        8.770405595        1.360869339        3.438870942                  0
 "DR.BHW.37"                     1.9513           120.0468        5.961043706       -1.395468274        3.492751551       0.6269000316        3.642401009        4.355836387       0.8369568047         3.48999107                  0
 "DRIFT_104"                     0.4003           120.4471         7.15748346       -1.593389467        3.743699633       0.6269000316        3.652160712        3.748325697       0.6806816911        3.505784055                  0
 "DR.QFW.38"                     0.7494           121.1965         7.30964541        1.412001522        3.618158197      -0.9531533846        3.667827948        4.046400676       -1.119121796        3.538258331                  0
 "DRIFT_105"                       1.84           123.0365        3.500090741       0.6584086239        1.864355969      -0.9531533846        3.727083691        10.04936702       -2.143359914        3.584844125                  0
 "DR.UHZ.3900"                        0           123.0365        3.500090741       0.6584086239        1.864355969      -0.9531533846        3.727083691        10.04936702       -2.143359914        3.584844125                  0
 "DRIFT_106"                    0.01055          123.04705        3.486243905       0.6540877516        1.854300201      -0.9531533846         3.72756437        10.09465387       -2.149232583        3.585010834                  0
 "DR.QDW.39"                     0.7499          123.79695        3.700474394      -0.9676383774        1.387114706       -0.323678241        3.762757151        10.27216564        1.936551349        3.596166092                  0
 "DRIFT_107"                    0.01055           123.8075        3.720949805      -0.9731588097          1.3836999       -0.323678241         3.76320965        10.23135588        1.931672637        3.596329877                  0
 "DR.UVT.3902"                        0           123.8075        3.720949805      -0.9731588097          1.3836999       -0.323678241         3.76320965        10.23135588        1.931672637        3.596329877                  0
 "DRIFT_108"                     0.3895            124.197        4.558424988       -1.176970032        1.257627226       -0.323678241        3.778284147        8.796739351        1.751553363         3.60286603                  0
 "DR.BHN.39"                     1.9513           126.1483        11.05811738       -2.187764095       0.8709837759     -0.07663375259        3.822139648        3.422120227       0.9242407782        3.660735258                  0
 "DRIFT_109"                     0.3966           126.5449        12.87575683        -2.39529049       0.8405908296     -0.07663375259        3.827430503        2.774238353       0.7093494225        3.681278071                  0
 "DR.QFW.40"                     0.7568           127.3017        13.27550992        1.911387984       0.6830656983      -0.3310375376        3.836272463        2.596377837      -0.4552572774        3.728731519                  0
 "DRIFT_110"                     0.0071           127.3088        13.24838588        1.908899253       0.6807153318      -0.3310375376         3.83635767         2.60286593      -0.4585586229        3.729166198                  0
 "DR.UHZ.4002"                        0           127.3088        13.24838588        1.908899253       0.6807153318      -0.3310375376         3.83635767         2.60286593      -0.4585586229        3.729166198                  0
 "DRIFT_111"                     0.3895           127.6983        11.81453167        1.772369592       0.5517762109      -0.3310375376        3.841313404        3.030625062      -0.6396676461        3.751309256                  0
 "DR.BHN.40"                     1.9513           129.6496        6.275109276        1.095255894       0.1509167304     -0.08399304917        3.877326099        7.055741535       -1.364266554        3.820640738                  0
 "DRIFT_112"                     0.4052           130.0548        5.445065635       0.9532229833       0.1168827469     -0.08399304917         3.88836754        8.227923788       -1.528582047        3.829108683                  0
 "DR.QDN.41.B"                   0.0093           130.0641        5.427582706       0.9254979937       0.1161049897     -0.08324168861        3.888639811        8.256061153       -1.495092306        3.829288267                  0
 "DR.UVT.4100"                        0           130.0641        5.427582706       0.9254979937       0.1161049897     -0.08324168861        3.888639811        8.256061153       -1.495092306        3.829288267                  0
 "DR.QDN.41.A"                   0.3605           130.4246        5.110488368     -0.02840061847      0.09088155835     -0.05739228946        3.899651825        8.855744849      -0.1349783638        3.835933351                  0
 "DR.QDN.41.H"                   0.3698           130.7944         5.48970718       -1.017415755      0.07399507209     -0.03443472185        3.910890037        8.417935295        1.291923776        3.842680522                  0
 "DRIFT_113"                    2.46415          133.25855        12.75485172       -1.930921212     -0.01085724775     -0.03443472185        3.958463146        3.976202004       0.5106179897        3.912705635                  0
 "DR.QFN.42.H"                  0.36605           133.6246        13.26743504       0.5557264926     -0.02020155132     -0.01633031126         3.96288942         3.91586996      -0.3395248088        3.927666562                  0
 "DR.QFN.42.B"                     0.36           133.9846        12.00814828        2.858227883      -0.0226841267     0.002610206299        3.967377605        4.483385944        -1.27130898        3.941514755                  0
 "DR.UHZ.4202"                        0           133.9846        12.00814828        2.858227883      -0.0226841267     0.002610206299        3.967377605        4.483385944        -1.27130898        3.941514755                  0
 "DR.QFN.42.A"                  0.00605          133.99065        11.97340401        2.888280194     -0.02266740744      0.00292378452        3.967457908        4.498860245       -1.287821159        3.941729154                  0
 "DRIFT_114"                    2.47345           136.4641        2.458861089       0.9583885973     -0.01543557262      0.00292378452        4.042791242        14.48482755       -2.749441492        3.991292169                  0
 "DR.UVT.4300"                        0           136.4641        2.458861089       0.9583885973     -0.01543557262      0.00292378452        4.042791242        14.48482755       -2.749441492        3.991292169                  0
 "DRIFT_115"                     0.0052           136.4693        2.448914945       0.9543313346     -0.01542036894      0.00292378452        4.043128506        14.51343772       -2.752514295        3.991349249                  0
 "DR.QDS.43"                     0.7106           137.1799         2.03715915      -0.3192742494     -0.01555837507     -0.00332165972        4.097317283        14.11506556         3.25717857        3.998872836                  0
 "DRIFT_116"                    2.47865          139.65855        6.943138433       -1.660020642     -0.02379160693     -0.00332165972        4.211840078        3.021265467        1.218564311        4.060834974                  0
 "DR.QFN.44.A"                  0.00605           139.6646        6.963135531       -1.643129624     -0.02381076667    -0.003004817048         4.21197856        3.006597908        1.204912636        4.061154455                  0
 "DR.UHZ.4400"                        0           139.6646        6.963135531       -1.643129624     -0.02381076667    -0.003004817048         4.21197856        3.006597908        1.204912636        4.061154455                  0
 "DR.QFN.44.B"                     0.36           140.0246        7.693165552      -0.3405019089     -0.02142771929      0.01616159661        4.219720701        2.417450174       0.4694940072        4.082715757                  0
 "DR.QFN.44.H"                  0.36605          140.39065        7.416831754        1.072913742     -0.01209671799      0.03451133231        4.227345315         2.30157227      -0.1440891147        4.107810167                  0
 "DRIFT_117"                    2.04795           142.4386        4.238721672       0.4789357078      0.05858076502      0.03451133231        4.286853916        4.751856059       -1.052367727        4.214094508                  0
 "DR.DVT.4408"                        0           142.4386        4.238721672       0.4789357078      0.05858076502      0.03451133231        4.286853916        4.751856059       -1.052367727        4.214094508                  0
 "DRIFT_118"                     0.4162           142.8548        3.890296232       0.3582229668      0.07294438153      0.03451133231        4.303194844         5.70467219       -1.236955026        4.226830678                  0
 "DR.QDN.45.H"                   0.3698           143.2246        3.905741674      -0.4000121313      0.08983216453        0.057286844         4.31847636        6.287234385      -0.3063410849        4.236561116                  0
 "DR.QDN.45.A"                   0.3605           143.5851         4.48397006       -1.235864342       0.1149855998      0.08295686897        4.332341395        6.151749269       0.6746190879        4.245699782                  0
 "DR.UVT.4502"                        0           143.5851         4.48397006       -1.235864342       0.1149855998      0.08295686897        4.332341395        6.151749269       0.6746190879        4.245699782                  0
 "DR.QDN.45.B"                   0.0093           143.5944        4.507185338       -1.261422558       0.1157604493      0.08370334726        4.332670642        6.138976479       0.7001255855        4.245940636                  0
 "DRIFT_119"                     0.4052           143.9996        5.623833528       -1.494372579       0.1496770456      0.08370334726        4.345493671        5.611449485       0.6017672923        4.256937013                  0
 "DR.BHN.45"                     1.9513           145.9509        13.54247164       -2.604915552       0.5499769059       0.3307478356        4.381016608         3.93861592        0.231065351         4.32505736                  0
 "DRIFT_120"                     0.3895           146.3404        15.65891928       -2.828839622       0.6788031878       0.3307478356        4.385274057         3.79919124       0.1268927484        4.341110012                  0
 "DR.UHZ.4600"                        0           146.3404        15.65891928       -2.828839622       0.6788031878       0.3307478356        4.385274057         3.79919124       0.1268927484        4.341110012                  0
 "DRIFT_121"                     0.0071           146.3475        15.69911778       -2.832921421       0.6811514975       0.3307478356        4.385346128        3.797402846       0.1249938383        4.341407514                  0
 "DR.QFW.46"                     0.7568           147.1043        16.04149632        2.418471008        0.838698343       0.0769796504        4.392629436        4.761617389       -1.502474053        4.371087887                  0
 "DRIFT_122"                     0.3966           147.5009        14.19032159        2.249140532       0.8692284724       0.0769796504        4.396813558        6.060983157       -1.773788599        4.382848213                  0
 "DR.BHN.46"                     1.9513           149.4522        7.094130757         1.42438646        1.256540097       0.3240241388        4.427648045        15.04971861       -2.701320258        4.415595641                  0
 "DRIFT_123"                     0.3895           149.8417        6.049307201        1.258087367        1.382747499       0.3240241388         4.43711655        17.23768718       -2.916057335        4.419444803                  0
 "DR.UVT.4700"                        0           149.8417        6.049307201        1.258087367        1.382747499       0.3240241388         4.43711655        17.23768718       -2.916057335        4.419444803                  0
 "DRIFT_124"                    0.01055          149.85225        6.022809079        1.253582989        1.386165953       0.3240241388        4.437394726        17.29927735       -2.921873705        4.419542037                  0
 "DR.QDW.47"                     0.7499          150.60215        5.994279156       -1.211826211        1.853478792       0.9531555213        4.458321405        16.47094888         3.91431451        4.426268034                  0
 "DRIFT_125"                    0.01055           150.6127        6.019894525       -1.216170839        1.863534583       0.9531555213        4.458600923        16.38846713        3.903860006        4.426370233                  0
 "DR.UHZ.4702"                        0           150.6127        6.019894525       -1.216170839        1.863534583       0.9531555213        4.458600923        16.38846713        3.903860006        4.426370233                  0
 "DRIFT_126"                       1.84           152.4527        11.88963769       -1.973906969        3.617340742       0.9531555213        4.493494381        5.377216733        2.080515213        4.457768875                  0
 "DR.QFW.48"                     0.7494           153.2021        11.12465502        2.885821112        3.743008421      -0.6265740942        4.503338309        4.050582923       -0.129162338        4.484810257                  0
 "DRIFT_127"                     0.4003           153.6024        8.948627096        2.550171712        3.492190811      -0.6265740942        4.509725366        4.194210023      -0.2296363133         4.50029154                  0
 "DR.BHW.48"                     1.9513           155.5537        2.225087351       0.9304427942        2.520440247      -0.3795296058        4.580980687        5.784593959      -0.5621481681        4.565118981                  0
 "DRIFT_128"                     0.3895           155.9432        1.627480644       0.6038491361        2.372613466      -0.3795296058         4.61378842        6.257021868      -0.6507604575        4.575430228                  0
 "DR.UHZ.4900"                        0           155.9432        1.627480644       0.6038491361        2.372613466      -0.3795296058         4.61378842        6.257021868      -0.6507604575        4.575430228                  0
 "DRIFT_129"                    0.00345          155.94665        1.623324065       0.6009563296        2.371304089      -0.3795296058        4.614126235        6.261514823      -0.6515453417        4.575517951                  0
 "DR.QDW.49"                     0.7641          156.71075        1.500005955      -0.4269524385        2.357693538       0.3432002733         4.69918099        5.852470763        1.143682886        4.594866703                  0
 "DRIFT_130"                    0.00345           156.7142        1.502961308       -0.429671691        2.358877578       0.3432002733        4.699546685        5.844584045        1.142322326        4.594960587                  0
 "DR.UVT.4902"                        0           156.7142        1.502961308       -0.429671691        2.358877578       0.3432002733        4.699546685        5.844584045        1.142322326        4.594960587                  0
 "DRIFT_131"                     0.3895           157.1037        1.957251925      -0.7366713562        2.492554085       0.3432002733        4.736008305        5.014544189       0.9887170981        4.606421269                  0
 "DR.BHW.49"                     1.9513            159.055        7.744455747       -2.259224606        3.394126894       0.5902447617        4.818637147        2.485582597       0.2703452567        4.699623651                  0
 "DRIFT_132"                     0.4003           159.4553        9.679490463       -2.574736713        3.630401872       0.5902447617        4.825998182        2.338323735      0.09752599507        4.726173092                  0
 "DR.QFW.50"                     0.7494           160.2047        10.45159297        1.654335215         3.49608918      -0.9392925905        4.837256248        3.240716635       -1.424860613        4.772447215                  0
 "DRIFT_133"                     0.2113            160.416        9.768434082        1.578787772        3.297616656      -0.9392925905        4.840584741        3.884610493       -1.622436396        4.781931016                  0
 "DR.S.KFE.5005"                      0            160.416        9.768434082        1.578787772        3.297616656      -0.9392925905        4.840584741        3.884610493       -1.622436396        4.781931016                  0
 "DR.KFE.5005"                   1.3285           161.7445        6.204615358        1.103800654         2.04976645      -0.9392925905        4.867877182        9.845702842       -2.864648549        4.816388432                  0
 "DRIFT_134"                     0.3002           162.0447         5.57411464       0.9964682249        1.767790814      -0.9392925905        4.876005005        11.64990445       -3.145350158         4.82085016                  0
 "DR.UHZ.5100"                        0           162.0447         5.57411464       0.9964682249        1.767790814      -0.9392925905        4.876005005        11.64990445       -3.145350158         4.82085016                  0
 "DRIFT_135"                    0.01055          162.05525        5.553128955       0.9926962158        1.757881277      -0.9392925905        4.876306803        11.71637542       -3.155214922         4.82099388                  0
 "DR.QDW.51"                     0.7499          162.80515        5.800737553       -1.355099491        1.286864465      -0.3480101356        4.898468864        12.87456423        1.767560297        4.830240481                  0
 "DRIFT_136"                    0.01055           162.8157        5.829384574       -1.360257957        1.283192958      -0.3480101356        4.898757613        12.83730436        1.764180684        4.830371089                  0
 "DR.UVT.5102"                        0           162.8157        5.829384574       -1.360257957        1.283192958      -0.3480101356        4.898757613        12.83730436        1.764180684        4.830371089                  0
 "DRIFT_137"                     0.3895           163.2052        6.963204877       -1.550705594        1.147643011      -0.3480101356        4.908493658        11.51160684        1.639407302        4.835471404                  0
 "DR.BHN.51"                     1.9513           165.1565        14.77876869       -2.495223458       0.7139973835      -0.1009656472        4.938986557        5.868421708        1.170094426        4.873620323                  0
 "DRIFT_138"                     0.3966           165.5531         16.8348883       -2.689142669       0.6739544078      -0.1009656472        4.942988716        5.003802461        1.009984362        4.885279036                  0
 "DR.QFW.52"                     0.7568           166.3099        16.68986199        2.864697522       0.5189638192      -0.3001463067        4.949883831        4.805006315      -0.7259835036        4.910980741                  0
 "DRIFT_139"                     0.0071            166.317        16.64921109        2.860781007       0.5168327804      -0.3001463067        4.949951619        4.815331301      -0.7282399147         4.91121566                  0
 "DR.UHZ.5202"                        0            166.317        16.64921109        2.860781007       0.5168327804      -0.3001463067        4.949951619        4.815331301      -0.7282399147         4.91121566                  0
 "DRIFT_140"                     0.3895           166.7065        14.50434937        2.645924312        0.399925794      -0.3001463067        4.953941199        5.430844376      -0.8520247203        4.923349594                  0
 "DR.BHS.52"                     1.9513           168.6578        6.340409471        1.580350643      0.05873922982     -0.05310181834        4.986221389        9.565679412       -1.206533683        4.966981719                  0
 "DRIFT_141"                     0.4052            169.063        5.150262462        1.356833485      0.03722237303     -0.05310181834        4.997516249        10.58560479       -1.310557572         4.97339221                  0
 "DR.QDC.53.C"                  0.01395          169.07695        5.112974083        1.315128574      0.03648562982     -0.05251724627        4.997948912        10.62126599        -1.24339753        4.973601593                  0
 "DR.UVT.5300"                        0          169.07695        5.112974083        1.315128574      0.03648562982     -0.05251724627        4.997948912        10.62126599        -1.24339753        4.973601593                  0
 "DR.QDC.53.D"                  0.35585           169.4328        4.513480487       0.4012278494      0.02023384229     -0.03926302732        5.009864591        10.89286786        0.497468943        4.978816724                  0
 "DR.QDC.53.H"                   0.3698           169.8026        4.531418051      -0.4497606823     0.007877156779     -0.02792124893        5.023030918        9.880458867        2.179999309        4.984431564                  0
 "DRIFT_142"                    2.46415          172.26675        8.359017844       -1.103553764     -0.06092498876     -0.02792124893        5.088591864        2.671903391       0.7453727167         5.06403848                  0
 "DR.QFC.54"                     0.7321          172.99885        7.666216513        1.959049907     -0.06127327654      0.02699216539        5.102486172        2.532795231      -0.5378589358        5.111678235                  0
 "DRIFT_143"                    0.34795           173.3468         6.37931615        1.739471039     -0.05188135259      0.02699216539        5.110408243        2.968720243      -0.7149791497         5.13192822                  0
 "DR.UHZ.5402"                        0           173.3468         6.37931615        1.739471039     -0.05188135259      0.02699216539        5.110408243        2.968720243      -0.7149791497         5.13192822                  0
 "DRIFT_144"                      0.654           174.0008        4.374004383        1.326754903     -0.03422847643      0.02699216539        5.130163697        4.121637211       -1.047890832        5.161860624                  0
 "DR.DHZ.5404"                        0           174.0008        4.374004383        1.326754903     -0.03422847643      0.02699216539        5.130163697        4.121637211       -1.047890832        5.161860624                  0
 "DRIFT_145"                     0.6725           174.6733         2.87492187       0.9023640756      -0.0160762452      0.02699216539        5.160530428        5.761266572       -1.390219741        5.183895309                  0
 "DR.DVT.5408"                        0           174.6733         2.87492187       0.9023640756      -0.0160762452      0.02699216539        5.160530428        5.761266572       -1.390219741        5.183895309                  0
 "DR.DVT.5408"                        0           174.6733         2.87492187       0.9023640756      -0.0160762452      0.02699216539        5.160530428        5.761266572       -1.390219741        5.183895309                  0
 "DRIFT_146"                     0.8042           175.4775         1.83169261       0.3948620628     0.005630854201      0.02699216539        5.217515919        8.326510859       -1.799589122        5.202416734                  0
 "DR.QDS.55"                     0.7106           176.1881        2.097447542      -0.8047398469      0.02661030138      0.03349211708         5.27964576         8.43122853        1.666931087        5.215278056                  0
 "DRIFT_147"                     0.0052           176.1933        2.105838077      -0.8088245986      0.02678446039      0.03349211708        5.280039551        8.413904565        1.664600581        5.215376316                  0
 "DR.UVT.5502"                        0           176.1933        2.105838077      -0.8088245986      0.02678446039      0.03349211708        5.280039551        8.413904565        1.664600581        5.215376316                  0
 "DRIFT_148"                      0.298           176.4913         2.65765567        -1.04291229      0.03676511128      0.03349211708        5.300141114        7.461602282        1.531044665         5.22136352                  0
 "DR.S.KFI.5506"                      0           176.4913         2.65765567        -1.04291229      0.03676511128      0.03349211708        5.300141114        7.461602282        1.531044665         5.22136352                  0
 "DR.KFI.5506"                   2.0425           178.5338        10.19502787       -2.647355615       0.1051727604      0.03349211708         5.36431702        3.076980829       0.6156488251        5.291449646                  0
 "DRIFT_149"                     0.2437           178.7775        11.53200133       -2.838789073       0.1133347893      0.03349211708        5.367894405         2.80353052       0.5064287683        5.304670521                  0
 "DR.QFN.56"                     0.7106           179.4881        12.11535018        2.099793338       0.1197583879       -0.015857111        5.377006258        3.090330822      -0.9487651392        5.345445267                  0
 "DRIFT_150"                     0.0052           179.4933         12.0935244        2.097471698       0.1196759309       -0.015857111         5.37707463        3.100214606      -0.9519624692        5.345712644                  0
 "DR.UHZ.5602"                        0           179.4933         12.0935244        2.097471698       0.1196759309       -0.015857111         5.37707463        3.100214606      -0.9519624692        5.345712644                  0
 "DRIFT_151"                     0.2385           179.7318        11.11842658        1.990988767         0.11589401       -0.015857111        5.380348347        3.589275959        -1.09860924        5.357101496                  0
 "DR.S.KFI.5606"                      0           179.7318        11.11842658        1.990988767         0.11589401       -0.015857111        5.380348347        3.589275959        -1.09860924        5.357101496                  0
 "DR.KFI.5606"                   2.0425           181.7743        4.847820938        1.079075197      0.08350586076       -0.015857111        5.425218308        10.64221804       -2.354483579        5.410706471                  0
 "DRIFT_152"                      0.298           182.0723        4.244340382       0.9460273415      0.07878044169       -0.015857111        5.435681661        12.10009327       -2.537715184        5.414886467                  0
 "DR.UVT.0100"                        0           182.0723        4.244340382       0.9460273415      0.07878044169       -0.015857111        5.435681661        12.10009327       -2.537715184        5.414886467                  0
 "DRIFT_153"                     0.0052           182.0775         4.23451377       0.9437057011      0.07869798471       -0.015857111        5.435876878        12.12650214       -2.540912514        5.414954789                  0
 "DR.QDS.01.H"                   0.3553           182.4328        3.906756872     0.001225812397      0.07589966664    9.053863871e-06        5.449968825        13.05256879    -0.001461652437         5.41939529                  0
 "DR.ENDAD"                           0           182.4328        3.906756872     0.001225812397      0.07589966664    9.053863871e-06        5.449968825        13.05256879    -0.001461652437         5.41939529                  0
 "AD$END"                             0           182.4328        3.906756872     0.001225812397      0.07589966664    9.053863871e-06        5.449968825        13.05256879    -0.001461652437         5.41939529                  0
